lab3
…
For Question 2. I filtered the Partys by median and only allowing people who are above their mean. As you look at the Dataframe the Political Party Dont Know, their median is 11 so the New Dataframe should only have Education levels above 11 for the party Dont Know, which is true for this Dataframe.

Question 3 How is the happiness of a respondent related to his/her marriage status? Define that a person is happy if the response to question is Very happy or Pretty happy.

happy<- dat %>%
  filter(happiness == "Very happy" | happiness == "Pretty happy")

happyFindings <- data.frame(aggregate(happy$happiness ~ happy$maritalStatus, data=happy, FUN = function(x){NROW(x)}))

print(happy)

## # A tibble: 52,386 x 7
##     year    id maritalStatus educationLevel politicalParty   happiness  ballot  
##    <dbl> <dbl> <chr>                  <dbl> <chr>            <chr>      <chr>   
##  1  1972     3 Married                   12 Independent      Pretty ha Not app
##  2  1972     5 Married                   12 Strong democrat  Pretty ha Not app
##  3  1972     6 Never married             14 Ind,near dem     Pretty ha Not app
##  4  1972     9 Never married             12 Strong democrat  Pretty ha Not app
##  5  1972    10 Married                   12 Strong democrat  Pretty ha Not app
##  6  1972    11 Married                   13 Strong democrat  Pretty ha Not app
##  7  1972    12 Married                    6 Not str republi Pretty ha Not app
##  8  1972    13 Married                    9 Strong democrat  Pretty ha Not app
##  9  1972    15 Married                    9 Strong democrat  Very happy Not app
## 10  1972    17 Married                   14 Ind,near rep     Very happy Not app
## #  with 52,376 more rows
…
